   5%	(1.34 seconds elapsed, 1466179 bytes/sec, 141238 nodes/sec)
  10%	(1.27 seconds elapsed, 1544617 bytes/sec, 148152 nodes/sec)
  15%	(1.25 seconds elapsed, 1573635 bytes/sec, 150871 nodes/sec)
  20%	(1.29 seconds elapsed, 1517473 bytes/sec, 145384 nodes/sec)
  25%	(1.26 seconds elapsed, 1559877 bytes/sec, 149418 nodes/sec)
  30%	(1.27 seconds elapsed, 1544114 bytes/sec, 145331 nodes/sec)
  35%	(1.22 seconds elapsed, 1612126 bytes/sec, 150987 nodes/sec)
  40%	(1.19 seconds elapsed, 1657879 bytes/sec, 155312 nodes/sec)
  45%	(1.38 seconds elapsed, 1423988 bytes/sec, 133316 nodes/sec)
  50%	(1.20 seconds elapsed, 1641132 bytes/sec, 153748 nodes/sec)
  55%	(1.19 seconds elapsed, 1645026 bytes/sec, 154011 nodes/sec)
  60%	(1.33 seconds elapsed, 1476022 bytes/sec, 138429 nodes/sec)
  65%	(1.20 seconds elapsed, 1637727 bytes/sec, 153597 nodes/sec)
  70%	(1.22 seconds elapsed, 1615287 bytes/sec, 151463 nodes/sec)
  75%	(1.21 seconds elapsed, 1619585 bytes/sec, 151910 nodes/sec)
  80%	(1.18 seconds elapsed, 1658221 bytes/sec, 155432 nodes/sec)
  85%	(1.53 seconds elapsed, 1284155 bytes/sec, 120428 nodes/sec)
  90%	(1.21 seconds elapsed, 1617100 bytes/sec, 151644 nodes/sec)
  95%	(1.21 seconds elapsed, 1618156 bytes/sec, 151745 nodes/sec)
